    Me--03996834130---- z e r o t sz y ki j e w j e o ci dzi e w j o ni ci sz e si ci o si e m t sz e ng cz t e r e y j e d a n y t sz y z e r o 
    Me--113650993------ i e d a ng t j e d e n t sz y ng sz e si ci sil p j e o ni ci z e r a ci e w j y ni ci dzi e w j e ll ni ci ci cz sz e r 
    Me--18377154------- i j e r e d a n ll o si e m ci t sz y r ? si e d a m ci si e d e m q j e n d r n e p j e ll ni ci cz t e r e 
    Me--22893744------- d w a D W A h h o si a m dzi e w j e ni ci cz t sz y ci si e d e m cz t e r y cz t e r e 
    Me--2540254-------- d w a p j e ll ni ci cz t e r e y z e r o m D W A p j e o ni ci cz t e r e 
    Me--267181--------- D W A sz e si ci si l d a m b i j e d e n e o si a m j e d a m i e d a n ng 
    Me--27926584------- d w a ? si e d a m ci dzi e zi e o ci D W A sz e si ci ng p j a r ci o si a m cz t e r e 
    Me--4077795-------- cz t e r e s e r o ci ci si e d e m ci a d a m cz e d e m sil g dzi e w j o ni ci p j e ni ci 
    Me--44839212------- cz t e r y f cz t e r y r k o si a m cz t sz y dzi e w j e o ni ci d y w a j e d e n D W A 
    Me--538522--------- p j e o ng ci ci t sz o e k sil o si e m p j e ll ni ci t f a ci r t n n D W A 
    Me--5838059620----- p j e m ci b o si si e m t sz y o si a m ? ? z z e r o p j e ni ci i dzi e w j e ni ci sz e si ci D W A z e r o 
    Me--6503667-------- sz e si ci p j e ni ci z e r o t sz y sz e si ci sz e si ci ? si e d a m 
    Me--671005693------ sz e si ci h si e d e m i j e d e n z e r o z e r o a p j e ll ni ci sz e si ci dzi e w j e ni ci t sz y r 
    Me--728324901------ si e d e m i d w a o si l a m ci t sz y r o D W A cz t e r e m dzi e w j o ng ci z e r o ng j e d e n 
    Me--76116351------- si e d e m w ? sz e si ci ci j e d a ng j e d e n sz e si ci t sz y m p j e o ni ci j e d a n 
    Me--797121--------- si e d a m ni dzi e j w j e ni ci ci si e d a m ci ki i e d a ng D W A t i e d a n e 
    Me--8018620-------- o si a n z e r o a i a d o n o si a n t sz e si c ci D W A ci y z e r o 
    Me--82434210------- o si a m D W A cz t e r e y t sz y cz t e r y d y w a i j e d e n ci s e r o 
    Me--8468086-------- o si a m cz t e r e ci sz e si c ci o si e ng n z e r o o si e m sz e si ci 
    Mei-2985254600----- p drz d w a t i l ni t o z e m p j e o ng t D W A j e ng gi cz t e r e sz a zi s t n e r o z e r a 
    Mei-5674768767----- p ki e ng m t sz e rz z c s e r e m t t e r e s e r e m sz e rz t o z y m s e r e m sz e zi c c e r e m w m 
    Mei-6537682818----- p sz e rz t p j e ng ng t t sz o c e r e m sz e l zi c ? o z c e m D W A o zi c e m j e r e m o zi c e m 
    Mei-7734512557----- p c y r e m s y e m t sz y o m cz t e r e p j e ni j e ni d e n D W A p j e ng ng t p j e o ng s e r e m 
    Mei-8241825683----- p o z e m d w a cz t e r e i e r e m o z e m D W A p j e m t sz e zi c o zi z e m t sz o 
    Mh--1014278270----- i r m n z y r o j a d a n cz t e r u d w a s o d a m o s e m D W A s y w a n z a r o w 
    Mh--3676258099----- t sz o sz e s c s a d a ng sz e s c D W A p j e n c k o s e n z a r o dz e w y n dz dz e r e n c 
    Mh--5333261908----- p j e o t si k sz o l k sz o l k sz y D W A a sz e s c i e d e n d z y m y ni c l e r o o s a 
    Mh--5359724286----- p j a ni ci t cz sz y drz sz p j e ni ci t y y ni ci s e d a m D W A cz t a d e d w a o n f e m f sz a si c s 
    Mh--6762069343----- sz e si c s e d e m sz e zi c D W A z a r o sz e si c d j e w y ni ci t cz sz o cz t e r y cz sz a 
    Mh--7217945305----- s e d e m D W A h j o d e n s e d e m ni dzi ni d y ng cz t e r y ki j e ni c k sz l z e r o p j ni c 
    Mh--8129937242----- o s y m j e d e n D W A d i l ni dzi dzi e w ni ci cz sz e l s e d e m t w a cz t e r e dz y w a 
    Mh--8225494246----- o s e m d e w a b w a p j e ni c cz t e r e d dzi e w j e ni ci t t e d e D W A cz t e r y sz e s c si 
    Mhi-0205433239----- p z e r o t w a z e r o p j e ni cz t e r y sz o l sz sz e D W A sz y dzi e w y n c 
    Mhi-3566325028----- p t sz y w j e ni sz e zi sz e zi c sz y w a p j e ni dz z e r o D W A o s e m 
    Mhi-6422059863----- p sz e zi cz t e r y D W A d w a z e r o p j e ni rz c y e ni ? o s y m sz e zi t cz sz o 
### Mhi-6804808483----- p sz e zi z o z e n z e o cz t e ng o s e n z e r o o z c y m cz t e o z o n t sz D W A 
    Mhi-7584987962----- p s e r e n p j e ni dzi o z a ng cz t e r y w y w j e n t l o z s e n dzi z s e r e n c y y ni sz e zi c D W A 
    Pe--1621931-------- j e d e n sz e si ci m D W A o j e d e m dzi e w i m ci t sz y j e d e m 
    Pe--1681220-------- k j e d e n m sz e si ci o si e m j a d e n D W A d w a z e o 
    Pe--209458--------- D W A z e r o dzi e w j e ni ci cz t e r y p j e ni ci o si e m 
    Pe--3421516-------- t sz y cz t e r y D W A j e d e m p j e ni ci j e d e m sz e ng si ci 
    Pe--4625776-------- cz t e r y sz e si ci D W A p j e ni ci si e d e m si e d e m sz e si ci 
    Pe--5155118-------- p j e ni ci j e d e n m p j e ni ci p j e ni ci j e d e n m j e d e m o si e m 
    Pe--7796325-------- si e d e m si e d e m ci e w i ni ci sz e si ci t sz y D W A p j e ni ci 
    Pe--8368984-------- k o si e m t sz y sz e si ci o si e m dzi e w j e ni ci o si e m cz t e r y 
    Pe--8813497-------- o sz e m m o si e m j e d e m c sz y cz t e d y dzi e w j e ni ci si e d e m 
    Pe--932903--------- ci j e w j e ni ci t sz y D W A dzi e w i m ci z e r o t sz y 
    Ph--1131611-------- i w y n j e l n d rz sz y j e w e sz e zi dzi y n ni e l e m 
    Ph--118642--------- j e r e n j e l e n ng o si e m sz o si cz t e r y D W A 
    Ph--1910146-------- j e d e ni dzi e w i ni ci j e d e ll z e r o j e d y n cz t y r y sz e si ci 
    Ph--2303953-------- D W A t sz y z e r o t sz y dzi e w i ni dzi b i ni ci t sz y 
    Ph--255523--------- D W A p j e ni ci p i ni ci p j e ni dzi d w a t sz y 
    Ph--2832853-------- w a o si e n drz sz y D W A o si e m i ni ci t sz y 
    Ph--316152--------- t sz y j e n e sz e si ci j e d e n w i ni dzi D W A 
    Ph--4256340-------- cz t e r y D W A b y ni cz sz e si cz y cz t e r y z e r o 
    Ph--4361803-------- cz t e r y t sz y sz e si ci j e D W A o si o n z e r o d rz sz y 
    Ph--5825131-------- ki i ni dzi b o si ng ni D W A p j e ni dzi e w y m t sz y j e n m 
    Ph--6279840-------- sz e zi D W A si a d e ni dzi e w i ni ci o si e m cz t e r y z e r o 
    Ph--644481--------- sz e si cz t e r y cz t e r y cz t e r y o si e m j e n m 
    Ph--717034--------- si e d e m j e d e n si e n y m z e r o t sz y cz t e r y 
    Ph--8348625-------- o si e n d rz y cz t e r y ll o sz y m sz e zi D W A p j e ni ci 
    Ph--8378159-------- o si e n t sz y si a d e m ll o si e ni n n p j e ni dzi dzi e w i m ci 
    Ph--8490032-------- k o si e n cz t e r y ni dzi e w j e ni w z e r o z e r ll t sz y D W A 
    Ph--8709237-------- o si e m si a g n n z e r o dzi e w j j rz D W A d rz n si a d e m 
    Ph--9014784-------- ci e w j e ni d z e r o j e d e n cz t e r j si a d e m b o si r ng cz t e r y 
    Ph--9291982-------- ci e w i ni dzi D W A ci j e w i ni ci j e w e ni dzi e w j e ni ci o si e n d w a 
    Ph--9316517-------- dzi e ni z t sz y j e w e ng sz e sz p j e w j e w m ci si e w e m 
    Ph--9556098-------- dzi e w i ni ci p j e ni dzi p j e ni sz e j z e r o dzi e w i ni ci o si m 
