\beamer@endinputifotherversion {3.36pt}
\beamer@sectionintoc {1}{Wprowadzenie problemu}{3}{0}{1}
\beamer@sectionintoc {2}{Analiza mowy oparta na automatach sko\IeC {\'n}czonych}{12}{0}{2}
\beamer@sectionintoc {3}{Wyra\IeC {\.z}enia regularne}{20}{0}{3}
\beamer@sectionintoc {4}{Podsumowanie}{33}{0}{4}
