<eps> 0
sil 1
? 2
a 3
b 4
c 5
ci 6
cz 7
d 8
drz 9
dz 10
dzi 11
e 12
f 13
g 14
gi 15
h 16
i 17
j 18
k 19
ki 20
l 21
ll 22
m 23
n 24
ng 25
ni 26
o 27
p 28
q 29
r 30
rz 31
s 32
si 33
sz 34
t 35
u 36
w 37
y 38
z 39
zi 40
#0 41
#1 42
