\beamer@endinputifotherversion {3.36pt}
\beamer@sectionintoc {1}{Wprowadzenie problemu}{3}{0}{1}
\beamer@sectionintoc {2}{Analiza mowy oparta na automatach sko\IeC {\'n}czonych}{9}{0}{2}
\beamer@sectionintoc {3}{Wyra\IeC {\.z}enia regularne}{16}{0}{3}
\beamer@sectionintoc {4}{Wyszukiwanie fraz w\nobreakspace {}nagraniach}{20}{0}{4}
\beamer@sectionintoc {5}{Wyniki}{29}{0}{5}
